Lab 5 Homework
…
2. How many total NAs are in each data set? Do these values make sense? Are NAs represented by any other values? First I checked if there are any nas in amniota but found none.

amniota %>% 
  summarise(num_nas = sum(is.na(amniota)))

## # A tibble: 1 x 1
##   num_nas
##     <int>
## 1       0

So I checked the data and found -999 which doesnt make sense in the context.

amniota 

## # A tibble: 21,322 x 36
##    class order family genus species subspecies common_name female_maturity
##    <chr> <chr> <chr>  <chr> <chr>        <dbl> <chr>                  <dbl>
##  1 Aves  Acci Accip Acci albogu       -999 Pied Gosha            -999 
##  2 Aves  Acci Accip Acci badius        -999 Shikra                  363.
##  3 Aves  Acci Accip Acci bicolor       -999 Bicolored             -999 
##  4 Aves  Acci Accip Acci brachy       -999 New Britai            -999 
##  5 Aves  Acci Accip Acci brevip       -999 Levant Spa             363.
##  6 Aves  Acci Accip Acci castan       -999 Chestnut-f            -999 
##  7 Aves  Acci Accip Acci chilen       -999 Chilean Ha            -999 
##  8 Aves  Acci Accip Acci chiono       -999 White-brea             548.
##  9 Aves  Acci Accip Acci cirroc       -999 Collared S            -999 
## 10 Aves  Acci Accip Acci cooper       -999 Cooper's H             730 
## #  with 21,312 more rows, and 28 more variables:
## #   litter_or_clutch_size_n <dbl>, litters_or_clutches_per_y <dbl>,
## #   adult_body_mass_g <dbl>, maximum_longevity_y <dbl>, gestation_d <dbl>,
## #   weaning_d <dbl>, birth_or_hatching_weight_g <dbl>, weaning_weight_g <dbl>,
## #   egg_mass_g <dbl>, incubation_d <dbl>, fledging_age_d <dbl>,
## #   longevity_y <dbl>, male_maturity_d <dbl>,
## #   inter_litter_or_interbirth_interval_y <dbl>, female_body_mass_g <dbl>,
## #   male_body_mass_g <dbl>, no_sex_body_mass_g <dbl>, egg_width_mm <dbl>,
## #   egg_length_mm <dbl>, fledging_mass_g <dbl>, adult_svl_cm <dbl>,
## #   male_svl_cm <dbl>, female_svl_cm <dbl>, birth_or_hatching_svl_cm <dbl>,
## #   female_svl_at_maturity_cm <dbl>, female_body_mass_at_maturity_g <dbl>,
## #   no_sex_svl_cm <dbl>, no_sex_maturity_d <dbl>

amniota <- 
  amniota %>% 
  na_if("-999")
amniota

## # A tibble: 21,322 x 36
##    class order family genus species subspecies common_name female_maturity
##    <chr> <chr> <chr>  <chr> <chr>        <dbl> <chr>                  <dbl>
##  1 Aves  Acci Accip Acci albogu         NA Pied Gosha              NA 
##  2 Aves  Acci Accip Acci badius          NA Shikra                  363.
##  3 Aves  Acci Accip Acci bicolor         NA Bicolored               NA 
##  4 Aves  Acci Accip Acci brachy         NA New Britai              NA 
##  5 Aves  Acci Accip Acci brevip         NA Levant Spa             363.
##  6 Aves  Acci Accip Acci castan         NA Chestnut-f              NA 
##  7 Aves  Acci Accip Acci chilen         NA Chilean Ha              NA 
##  8 Aves  Acci Accip Acci chiono         NA White-brea             548.
##  9 Aves  Acci Accip Acci cirroc         NA Collared S              NA 
## 10 Aves  Acci Accip Acci cooper         NA Cooper's H             730 
## #  with 21,312 more rows, and 28 more variables:
## #   litter_or_clutch_size_n <dbl>, litters_or_clutches_per_y <dbl>,
## #   adult_body_mass_g <dbl>, maximum_longevity_y <dbl>, gestation_d <dbl>,
## #   weaning_d <dbl>, birth_or_hatching_weight_g <dbl>, weaning_weight_g <dbl>,
## #   egg_mass_g <dbl>, incubation_d <dbl>, fledging_age_d <dbl>,
## #   longevity_y <dbl>, male_maturity_d <dbl>,
## #   inter_litter_or_interbirth_interval_y <dbl>, female_body_mass_g <dbl>,
## #   male_body_mass_g <dbl>, no_sex_body_mass_g <dbl>, egg_width_mm <dbl>,
## #   egg_length_mm <dbl>, fledging_mass_g <dbl>, adult_svl_cm <dbl>,
…
## # A tibble: 1 x 1
##   num_nas
##     <int>
## 1  170691

3. Make any necessary replacements in the data such that all NAs appear as NA.

amniota <- 
  amniota %>% 
  na_if("-999")
amniota

## # A tibble: 21,322 x 36
##    class order family genus species subspecies common_name female_maturity
##    <chr> <chr> <chr>  <chr> <chr>        <dbl> <chr>                  <dbl>
##  1 Aves  Acci Accip Acci albogu         NA Pied Gosha              NA 
##  2 Aves  Acci Accip Acci badius          NA Shikra                  363.
##  3 Aves  Acci Accip Acci bicolor         NA Bicolored               NA 
##  4 Aves  Acci Accip Acci brachy         NA New Britai              NA 
##  5 Aves  Acci Accip Acci brevip         NA Levant Spa             363.
##  6 Aves  Acci Accip Acci castan         NA Chestnut-f              NA 
##  7 Aves  Acci Accip Acci chilen         NA Chilean Ha              NA 
##  8 Aves  Acci Accip Acci chiono         NA White-brea             548.
##  9 Aves  Acci Accip Acci cirroc         NA Collared S              NA 
## 10 Aves  Acci Accip Acci cooper         NA Cooper's H             730 
## #  with 21,312 more rows, and 28 more variables:
## #   litter_or_clutch_size_n <dbl>, litters_or_clutches_per_y <dbl>,
## #   adult_body_mass_g <dbl>, maximum_longevity_y <dbl>, gestation_d <dbl>,
## #   weaning_d <dbl>, birth_or_hatching_weight_g <dbl>, weaning_weight_g <dbl>,
## #   egg_mass_g <dbl>, incubation_d <dbl>, fledging_age_d <dbl>,
## #   longevity_y <dbl>, male_maturity_d <dbl>,
## #   inter_litter_or_interbirth_interval_y <dbl>, female_body_mass_g <dbl>,
## #   male_body_mass_g <dbl>, no_sex_body_mass_g <dbl>, egg_width_mm <dbl>,
## #   egg_length_mm <dbl>, fledging_mass_g <dbl>, adult_svl_cm <dbl>,
## #   male_svl_cm <dbl>, female_svl_cm <dbl>, birth_or_hatching_svl_cm <dbl>,
## #   female_svl_at_maturity_cm <dbl>, female_body_mass_at_maturity_g <dbl>,
## #   no_sex_svl_cm <dbl>, no_sex_maturity_d <dbl>

4. Use the package naniar to produce a summary, including percentages, of missing data in each column for both data sets.

naniar::miss_var_summary(amniota)

## # A tibble: 36 x 3
##    variable                       n_miss pct_miss
##    <chr>                           <int>    <dbl>
##  1 subspecies                      21322    100  
##  2 female_body_mass_at_maturity_g  21318    100. 
##  3 female_svl_at_maturity_cm       21120     99.1
##  4 fledging_mass_g                 21111     99.0
##  5 male_svl_cm                     21040     98.7
##  6 no_sex_maturity_d               20860     97.8
##  7 egg_width_mm                    20727     97.2
##  8 egg_length_mm                   20702     97.1
##  9 weaning_weight_g                20258     95.0
## 10 female_svl_cm                   20242     94.9
## #  with 26 more rows

naniar::miss_var_summary(amphibio)

## # A tibble: 38 x 3
##    variable n_miss pct_miss
##    <chr>     <int>    <dbl>
##  1 OBS        6776    100  
##  2 Fruits     6774    100. 
##  3 Flowers    6772     99.9
##  4 Seeds      6772     99.9
##  5 Leaves     6752     99.6
##  6 Dry_cold   6735     99.4
##  7 Vert       6657     98.2
##  8 Wet_cold   6625     97.8
##  9 Crepu      6608     97.5
## 10 Dry_warm   6572     97.0
## #  with 28 more rows
…
9. The amphibio data includes information on ecology. Each species is classified as fossorial, terrestrial, aquatic, or arboreal. How many species are in each of these categories? Make a bar plot to visualize these results. Which category is most/ least represented in the data? Terrestrial is most represented and fossorial is the least.

amphibio

## # A tibble: 6,776 x 38
##    id    Order Family Genus Species   Fos   Ter   Aqu   Arb Leaves Flowers Seeds
##    <chr> <chr> <chr>  <chr> <chr>   <dbl> <dbl> <dbl> <dbl>  <dbl>   <dbl> <lgl>
##  1 Anf0 Anura Allop Allo Alloph    NA     1     1     1     NA      NA NA   
##  2 Anf0 Anura Alyti Alyt Alytes    NA     1     1     1     NA      NA NA   
##  3 Anf0 Anura Alyti Alyt Alytes    NA     1     1     1     NA      NA NA   
##  4 Anf0 Anura Alyti Alyt Alytes    NA     1     1     1     NA      NA NA   
##  5 Anf0 Anura Alyti Alyt Alytes    NA     1    NA     1     NA      NA NA   
##  6 Anf0 Anura Alyti Alyt Alytes     1     1     1     1     NA      NA NA   
##  7 Anf0 Anura Alyti Disc Discog     1     1     1    NA     NA      NA NA   
##  8 Anf0 Anura Alyti Disc Discog     1     1     1    NA     NA      NA NA   
##  9 Anf0 Anura Alyti Disc Discog     1     1     1    NA     NA      NA NA   
## 10 Anf0 Anura Alyti Disc Discog     1     1     1    NA     NA      NA NA   
## #  with 6,766 more rows, and 26 more variables: Fruits <dbl>, Arthro <dbl>,
## #   Vert <dbl>, Diu <dbl>, Noc <dbl>, Crepu <dbl>, Wet_warm <dbl>,
## #   Wet_cold <dbl>, Dry_warm <dbl>, Dry_cold <dbl>, Body_mass_g <dbl>,
## #   Age_at_maturity_min_y <dbl>, Age_at_maturity_max_y <dbl>,
## #   Body_size_mm <dbl>, Size_at_maturity_min_mm <dbl>,
## #   Size_at_maturity_max_mm <dbl>, Longevity_max_y <dbl>,
## #   Litter_size_min_n <dbl>, Litter_size_max_n <dbl>,
## #   Reproductive_output_y <dbl>, Offspring_size_min_mm <dbl>,
## #   Offspring_size_max_mm <dbl>, Dir <dbl>, Lar <dbl>, Viv <dbl>, OBS <lgl>
…
10. For the amphibio data, we are interested to know if body size is correlated with litter size? Make a plot that shows this relationship. You should notice that there are outliers. Can you think of a way to identify the outliers for both body size and litter size? What happens when you then re-plot the data?

amphibio

## # A tibble: 6,776 x 38
##    id    Order Family Genus Species   Fos   Ter   Aqu   Arb Leaves Flowers Seeds
##    <chr> <chr> <chr>  <chr> <chr>   <dbl> <dbl> <dbl> <dbl>  <dbl>   <dbl> <lgl>
##  1 Anf0 Anura Allop Allo Alloph    NA     1     1     1     NA      NA NA   
##  2 Anf0 Anura Alyti Alyt Alytes    NA     1     1     1     NA      NA NA   
##  3 Anf0 Anura Alyti Alyt Alytes    NA     1     1     1     NA      NA NA   
##  4 Anf0 Anura Alyti Alyt Alytes    NA     1     1     1     NA      NA NA   
##  5 Anf0 Anura Alyti Alyt Alytes    NA     1    NA     1     NA      NA NA   
##  6 Anf0 Anura Alyti Alyt Alytes     1     1     1     1     NA      NA NA   
##  7 Anf0 Anura Alyti Disc Discog     1     1     1    NA     NA      NA NA   
##  8 Anf0 Anura Alyti Disc Discog     1     1     1    NA     NA      NA NA   
##  9 Anf0 Anura Alyti Disc Discog     1     1     1    NA     NA      NA NA   
## 10 Anf0 Anura Alyti Disc Discog     1     1     1    NA     NA      NA NA   
## #  with 6,766 more rows, and 26 more variables: Fruits <dbl>, Arthro <dbl>,
## #   Vert <dbl>, Diu <dbl>, Noc <dbl>, Crepu <dbl>, Wet_warm <dbl>,
## #   Wet_cold <dbl>, Dry_warm <dbl>, Dry_cold <dbl>, Body_mass_g <dbl>,
## #   Age_at_maturity_min_y <dbl>, Age_at_maturity_max_y <dbl>,
## #   Body_size_mm <dbl>, Size_at_maturity_min_mm <dbl>,
## #   Size_at_maturity_max_mm <dbl>, Longevity_max_y <dbl>,
## #   Litter_size_min_n <dbl>, Litter_size_max_n <dbl>,
## #   Reproductive_output_y <dbl>, Offspring_size_min_mm <dbl>,
## #   Offspring_size_max_mm <dbl>, Dir <dbl>, Lar <dbl>, Viv <dbl>, OBS <lgl>
…
