…
## How many NA's?

```r
naniar::miss_var_summary(hiroshima_nagasaki)
```

```
## # A tibble: 34 x 3
##    variable       n_miss pct_miss
##    <chr>           <int>    <dbl>
##  1 observation         0        0
##  2 city                0        0
##  3 sex                 0        0
##  4 ageatb              0        0
##  5 dose_centigray      0        0
##  6 time                0        0
##  7 index               0        0
##  8 total_year          0        0
##  9 alldeaths           0        0
## 10 alldis              0        0
## # … with 24 more rows
```

## Tidying Data

```r
tidy_hiroshima_nagasaki <- hiroshima_nagasaki %>% 
  pivot_longer(-c(observation, city, sex, ageatb, dose_centigray, time, index, total_year, alldeaths),
               names_to = "type_death",
               values_to = "number_death")

tidy_hiroshima_nagasaki
```

```
## # A tibble: 32,000 x 11
##    observation city  sex   ageatb dose_centigray time  index total_year
##          <int> <chr> <chr> <fct>  <fct>          <chr> <int>      <dbl>
##  1           1 Hiro… M     5      0              1952      1       110.
##  2           1 Hiro… M     5      0              1952      1       110.
##  3           1 Hiro… M     5      0              1952      1       110.
##  4           1 Hiro… M     5      0              1952      1       110.
##  5           1 Hiro… M     5      0              1952      1       110.
##  6           1 Hiro… M     5      0              1952      1       110.
##  7           1 Hiro… M     5      0              1952      1       110.
##  8           1 Hiro… M     5      0              1952      1       110.
##  9           1 Hiro… M     5      0              1952      1       110.
## 10           1 Hiro… M     5      0              1952      1       110.
## # … with 31,990 more rows, and 3 more variables: alldeaths <int>,
## #   type_death <chr>, number_death <int>
```
…
