Cancer Deaths in Hiroshima and Nagasaki Survivors
…
hiroshima_nagasaki <- hiroshima_nagasaki %>% 
  mutate_at(vars(city), ~str_replace_all(., "0", "Hiroshima")) %>% 
  mutate_at(vars(city), ~str_replace_all(., "1", "Nagasaki")) %>% 
  mutate_at(vars(sex), ~str_replace_all(., "0", "M")) %>% 
  mutate_at(vars(sex), ~str_replace_all(., "1", "F")) %>%
  mutate_at(vars(time), ~paste0("19", .)) %>% 
  rowid_to_column(var='observation') %>% 
  mutate_at(vars(dose_centigray), as.factor) %>% 
  mutate_at(vars(ageatb), as.factor) 

How many NAs?

naniar::miss_var_summary(hiroshima_nagasaki)

## # A tibble: 34 x 3
##    variable       n_miss pct_miss
##    <chr>           <int>    <dbl>
##  1 observation         0        0
##  2 city                0        0
##  3 sex                 0        0
##  4 ageatb              0        0
##  5 dose_centigray      0        0
##  6 time                0        0
##  7 index               0        0
##  8 total_year          0        0
##  9 alldeaths           0        0
## 10 alldis              0        0
## #  with 24 more rows

Tidying Data

tidy_hiroshima_nagasaki <- hiroshima_nagasaki %>% 
  pivot_longer(-c(observation, city, sex, ageatb, dose_centigray, time, index, total_year, alldeaths),
               names_to = "type_death",
               values_to = "number_death")

tidy_hiroshima_nagasaki

## # A tibble: 32,000 x 11
##    observation city  sex   ageatb dose_centigray time  index total_year
##          <int> <chr> <chr> <fct>  <fct>          <chr> <int>      <dbl>
##  1           1 Hiro M     5      0              1952      1       110.
##  2           1 Hiro M     5      0              1952      1       110.
##  3           1 Hiro M     5      0              1952      1       110.
##  4           1 Hiro M     5      0              1952      1       110.
##  5           1 Hiro M     5      0              1952      1       110.
##  6           1 Hiro M     5      0              1952      1       110.
##  7           1 Hiro M     5      0              1952      1       110.
##  8           1 Hiro M     5      0              1952      1       110.
##  9           1 Hiro M     5      0              1952      1       110.
## 10           1 Hiro M     5      0              1952      1       110.
## #  with 31,990 more rows, and 3 more variables: alldeaths <int>,
## #   type_death <chr>, number_death <int>
…
