…
12. Which country had the largest overall catch in the year 2000? #ask about this one
Peru had the largest catch.

```r
fisheries_tidy2 %>% 
  group_by(country) %>% 
  filter(year == 2000) %>% 
  summarise(catch = sum(catch, na.rm = TRUE)) %>% 
  arrange(desc(catch))
```

```
## # A tibble: 204 x 2
##    country                     catch
##    <fct>                       <dbl>
##  1 Peru                     10625010
##  2 Japan                     4921013
##  3 United States of America  4692229
##  4 Chile                     4297928
##  5 Indonesia                 3761769
##  6 Russian Federation        3678828
##  7 Thailand                  2795719
##  8 India                     2760632
##  9 Norway                    2698506
## 10 Iceland                   1982369
## # … with 194 more rows
```
13. Which country caught the most sardines (_Sardina_) between the years 1990-2000?
Morocco has the largest sardine catch


```r
fisheries_tidy2 %>% 
  filter(str_detect(ASFIS_sciname, "Sardina")) %>% 
  filter(year >= 1990 & year <= 2000) %>%
  group_by(country) %>% 
  summarize(catch = sum(catch, na.rm = T)) %>% 
  arrange(desc(catch))
```

```
## # A tibble: 46 x 2
##    country              catch
##    <fct>                <dbl>
##  1 Morocco            4785190
##  2 Spain              1425317
##  3 Russian Federation 1035139
##  4 Portugal            926318
##  5 Ukraine             784730
##  6 Italy               377907
##  7 Algeria             311733
##  8 Turkey              273565
##  9 France              263871
## 10 Denmark             242017
## # … with 36 more rows
```
14. Which five countries caught the most cephalopods between 2008-2012?
The top 5 countries are China, Peru, Korea, Japan, and Chile.

```r
fisheries_tidy2 %>% 
  filter(str_detect(ISSCAAP_spgroupname, "Squids")) %>% 
  filter(year <=2012 &year >=2008) %>% 
  group_by(country) %>% 
  
  summarise(catch = sum(catch, na.rm = T)) %>% 
  arrange(desc(catch))
```

```
## # A tibble: 139 x 2
##    country                    catch
##    <fct>                      <dbl>
##  1 China                    4785139
##  2 Peru                     2274232
##  3 Korea, Republic of       1535454
##  4 Japan                    1394041
##  5 Chile                     723186
##  6 Indonesia                 684567
##  7 United States of America  613400
##  8 Thailand                  603529
##  9 Taiwan Province of China  593638
## 10 Argentina                 587238
## # … with 129 more rows
```
…
```r
fisheries_tidy %>% 
  filter(str_detect(commname, "octopus")) %>% 
  filter(year == 1963) %>% 
  group_by(country) %>% 
  summarise(catch = sum(catch, na.rm = T)) %>% 
  arrange(desc(catch))
```

```
## # A tibble: 22 x 2
##    country            catch
##    <fct>              <dbl>
##  1 Italy               6100
##  2 Spain               1900
##  3 Tunisia             1000
##  4 Mexico               700
##  5 Yugoslavia SFR       100
##  6 Albania                0
##  7 Congo, Republic of     0
##  8 Croatia                0
##  9 Dominican Republic     0
## 10 France                 0
## # … with 12 more rows
```
…
