Lab 4 Homework
…
unit

fisheries <- 
  fisheries %>% 
  dplyr::rename(country = Country,
                commname = `Common name`,
                ISSCAAP_spgroup = `ISSCAAP group#`,
                ASFIS_spcode =`ASFIS species#`,
                ASFIS_sciname = `ASFIS species name`,
               ISSCAAP_spgroupname = `ISSCAAP taxonomic group`,
               FAO_area = `FAO major fishing area`,
               unit = Measure)
fisheries

## # A tibble: 17,692 x 71
##    country commname ISSCAAP_spgroup ISSCAAP_spgroup ASFIS_spcode ASFIS_sciname
##    <fct>   <fct>              <dbl> <fct>            <fct>        <fct>        
##  1 Albania Angelsh              38 Sharks, rays, c 10903XXXXX   Squatinidae  
##  2 Albania Atlanti              36 Tunas, bonitos, 1750100101   Sarda sarda  
##  3 Albania Barracu              37 Miscellaneous p 17710001XX   Sphyraena spp
##  4 Albania Blue an              45 Shrimps, prawns  2280203101   Aristeus ant
##  5 Albania Blue wh              32 Cods, hakes, ha 1480403301   Micromesisti
##  6 Albania Bluefish              37 Miscellaneous p 1702021301   Pomatomus sa
##  7 Albania Bogue                 33 Miscellaneous c 1703926101   Boops boops  
##  8 Albania Caramot              45 Shrimps, prawns  2280100117   Penaeus kera
##  9 Albania Catshar              38 Sharks, rays, c 10801003XX   Scyliorhinus
## 10 Albania Common               57 Squids, cuttlef 3210200202   Sepia offici
## #  with 17,682 more rows, and 65 more variables: FAO_area <dbl>, unit <fct>,
## #   `1950` <dbl>, `1951` <dbl>, `1952` <dbl>, `1953` <dbl>, `1954` <dbl>,
## #   `1955` <dbl>, `1956` <dbl>, `1957` <dbl>, `1958` <dbl>, `1959` <dbl>,
## #   `1960` <dbl>, `1961` <dbl>, `1962` <dbl>, `1963` <dbl>, `1964` <dbl>,
## #   `1965` <dbl>, `1966` <dbl>, `1967` <dbl>, `1968` <dbl>, `1969` <dbl>,
## #   `1970` <dbl>, `1971` <dbl>, `1972` <dbl>, `1973` <dbl>, `1974` <dbl>,
## #   `1975` <dbl>, `1976` <dbl>, `1977` <dbl>, `1978` <dbl>, `1979` <dbl>,
## #   `1980` <dbl>, `1981` <dbl>, `1982` <dbl>, `1983` <dbl>, `1984` <dbl>,
## #   `1985` <dbl>, `1986` <dbl>, `1987` <dbl>, `1988` <dbl>, `1989` <dbl>,
…
Are these data tidy? Why or why not, and, how do you know? Use the appropriate pivot function to tidy the data. Remove the NAs. Put the tidy data frame into a new object fisheries_tidy. The data is not tidy because all of the year columns are data and should be pivotted longer.

fisheries_tidy <- 
  fisheries %>% 
  pivot_longer(`1950`:`2012`,
               names_to = "year",
               values_to = "catch")
fisheries_tidy

## # A tibble: 1,114,596 x 10
##    country commname ISSCAAP_spgroup ISSCAAP_spgroup ASFIS_spcode ASFIS_sciname
##    <fct>   <fct>              <dbl> <fct>            <fct>        <fct>        
##  1 Albania Angelsh              38 Sharks, rays, c 10903XXXXX   Squatinidae  
##  2 Albania Angelsh              38 Sharks, rays, c 10903XXXXX   Squatinidae  
##  3 Albania Angelsh              38 Sharks, rays, c 10903XXXXX   Squatinidae  
##  4 Albania Angelsh              38 Sharks, rays, c 10903XXXXX   Squatinidae  
##  5 Albania Angelsh              38 Sharks, rays, c 10903XXXXX   Squatinidae  
##  6 Albania Angelsh              38 Sharks, rays, c 10903XXXXX   Squatinidae  
##  7 Albania Angelsh              38 Sharks, rays, c 10903XXXXX   Squatinidae  
##  8 Albania Angelsh              38 Sharks, rays, c 10903XXXXX   Squatinidae  
##  9 Albania Angelsh              38 Sharks, rays, c 10903XXXXX   Squatinidae  
## 10 Albania Angelsh              38 Sharks, rays, c 10903XXXXX   Squatinidae  
## #  with 1,114,586 more rows, and 4 more variables: FAO_area <dbl>, unit <fct>,
## #   year <chr>, catch <dbl>

Refocus the data only to include country, ISSCAAP_spgroupname, ASFIS_spcode, ASFIS_sciname, year, and catch.

fisheries_tidy2 <- 
  fisheries_tidy %>% 
  select(country, ISSCAAP_spgroupname, ASFIS_spcode, ASFIS_sciname, year, catch)
fisheries_tidy2

## # A tibble: 1,114,596 x 6
##    country ISSCAAP_spgroupname     ASFIS_spcode ASFIS_sciname year  catch
##    <fct>   <fct>                   <fct>        <fct>         <chr> <dbl>
##  1 Albania Sharks, rays, chimaeras 10903XXXXX   Squatinidae   1950     NA
##  2 Albania Sharks, rays, chimaeras 10903XXXXX   Squatinidae   1951     NA
##  3 Albania Sharks, rays, chimaeras 10903XXXXX   Squatinidae   1952     NA
##  4 Albania Sharks, rays, chimaeras 10903XXXXX   Squatinidae   1953     NA
##  5 Albania Sharks, rays, chimaeras 10903XXXXX   Squatinidae   1954     NA
##  6 Albania Sharks, rays, chimaeras 10903XXXXX   Squatinidae   1955     NA
##  7 Albania Sharks, rays, chimaeras 10903XXXXX   Squatinidae   1956     NA
##  8 Albania Sharks, rays, chimaeras 10903XXXXX   Squatinidae   1957     NA
##  9 Albania Sharks, rays, chimaeras 10903XXXXX   Squatinidae   1958     NA
## 10 Albania Sharks, rays, chimaeras 10903XXXXX   Squatinidae   1959     NA
## #  with 1,114,586 more rows
…
Based on the ASFIS_spcode, how many distinct taxa were caught as part of these data?

nlevels(fisheries_tidy2$ASFIS_spcode)

## [1] 1553

Which country had the largest overall catch in the year 2000? #ask about this one Peru had the largest catch.

fisheries_tidy2 %>% 
  group_by(country) %>% 
  filter(year == 2000) %>% 
  summarise(catch = sum(catch, na.rm = TRUE)) %>% 
  arrange(desc(catch))

## # A tibble: 204 x 2
##    country                     catch
##    <fct>                       <dbl>
##  1 Peru                     10625010
##  2 Japan                     4921013
##  3 United States of America  4692229
##  4 Chile                     4297928
##  5 Indonesia                 3761769
##  6 Russian Federation        3678828
##  7 Thailand                  2795719
##  8 India                     2760632
##  9 Norway                    2698506
## 10 Iceland                   1982369
## #  with 194 more rows

Which country caught the most sardines (Sardina) between the years 1990-2000? Morocco has the largest sardine catch

fisheries_tidy2 %>% 
  filter(str_detect(ASFIS_sciname, "Sardina")) %>% 
  filter(year >= 1990 & year <= 2000) %>%
  group_by(country) %>% 
  summarize(catch = sum(catch, na.rm = T)) %>% 
  arrange(desc(catch))

## # A tibble: 46 x 2
##    country              catch
##    <fct>                <dbl>
##  1 Morocco            4785190
##  2 Spain              1425317
##  3 Russian Federation 1035139
##  4 Portugal            926318
##  5 Ukraine             784730
##  6 Italy               377907
##  7 Algeria             311733
##  8 Turkey              273565
##  9 France              263871
## 10 Denmark             242017
## #  with 36 more rows

Which five countries caught the most cephalopods between 2008-2012? The top 5 countries are China, Peru, Korea, Japan, and Chile.

fisheries_tidy2 %>% 
  filter(str_detect(ISSCAAP_spgroupname, "Squids")) %>% 
  filter(year <=2012 &year >=2008) %>% 
  group_by(country) %>% 
  
  summarise(catch = sum(catch, na.rm = T)) %>% 
  arrange(desc(catch))

## # A tibble: 139 x 2
##    country                    catch
##    <fct>                      <dbl>
##  1 China                    4785139
##  2 Peru                     2274232
##  3 Korea, Republic of       1535454
##  4 Japan                    1394041
##  5 Chile                     723186
##  6 Indonesia                 684567
##  7 United States of America  613400
##  8 Thailand                  603529
##  9 Taiwan Province of China  593638
## 10 Argentina                 587238
## #  with 129 more rows
…
Use the data to do at least one exploratory analysis of your choice. What can you learn? I want to know which country caught the most octopus in 1963. The answer is Italy

fisheries_tidy %>% 
  filter(str_detect(commname, "octopus")) %>% 
  filter(year == 1963) %>% 
  group_by(country) %>% 
  summarise(catch = sum(catch, na.rm = T)) %>% 
  arrange(desc(catch))

## # A tibble: 22 x 2
##    country            catch
##    <fct>              <dbl>
##  1 Italy               6100
##  2 Spain               1900
##  3 Tunisia             1000
##  4 Mexico               700
##  5 Yugoslavia SFR       100
##  6 Albania                0
##  7 Congo, Republic of     0
##  8 Croatia                0
##  9 Dominican Republic     0
## 10 France                 0
## #  with 12 more rows
…
